report/cpu_run.vcd
$date
	Sun May 12 19:16:33 2019
$end
$version
	Icarus Verilog
$end
$timescale
	10ps
$end
$scope module CPU_tb $end
$var wire 1 ! halt $end
$var wire 1 " U2_imem_clk $end
$var wire 32 # U2_imem_addr [31:0] $end
$var wire 1 $ U2_dmem_mem_write $end
$var wire 1 % U2_dmem_mem_read $end
$var wire 32 & U2_dmem_dta_write [31:0] $end
$var wire 1 ' U2_dmem_clk $end
$var wire 32 ( U2_dmem_addr [31:0] $end
$var wire 32 ) U1_dmem_dta_out [31:0] $end
$var wire 32 * U0_imem_instr [31:0] $end
$var reg 1 + clk $end
$var integer 32 , clk_count [31:0] $end
$scope module U0 $end
$var wire 32 - instr [31:0] $end
$var wire 1 " clk $end
$var wire 32 . addr [31:0] $end
$var reg 32 / addr_d [31:0] $end
$scope begin IMEM_INIT $end
$var reg 32 0 tmp [31:0] $end
$var integer 32 1 bit [31:0] $end
$var integer 32 2 char [31:0] $end
$var integer 32 3 f_in [31:0] $end
$var integer 32 4 word [31:0] $end
$upscope $end
$upscope $end
$scope module U1 $end
$var wire 32 5 dta_out [31:0] $end
$var wire 1 $ mem_write $end
$var wire 1 % mem_read $end
$var wire 32 6 dta_write [31:0] $end
$var wire 1 ' clk $end
$var wire 32 7 addr [31:0] $end
$var reg 32 8 dta_out_d [31:0] $end
$scope begin DMEM_INIT $end
$var reg 32 9 tmp [31:0] $end
$var integer 32 : bit [31:0] $end
$var integer 32 ; char [31:0] $end
$var integer 32 < f_in [31:0] $end
$var integer 32 = word [31:0] $end
$upscope $end
$scope task dump_mem $end
$var integer 32 > f_out [31:0] $end
$var integer 32 ? word [31:0] $end
$upscope $end
$upscope $end
$scope module U2 $end
$var wire 1 + clk $end
$var wire 32 @ dmem_addr [31:0] $end
$var wire 1 ' dmem_clk $end
$var wire 32 A dmem_dta_out [31:0] $end
$var wire 32 B dmem_dta_write [31:0] $end
$var wire 1 % dmem_mem_read $end
$var wire 1 $ dmem_mem_write $end
$var wire 1 ! halt $end
$var wire 32 C imem_addr [31:0] $end
$var wire 1 " imem_clk $end
$var wire 32 D imem_instr [31:0] $end
$var wire 1 E hz_PcStop $end
$var wire 1 F hz_InjectNop $end
$var wire 1 G hz_FwdUnitEnable $end
$var wire 1 H fwd_AluArg2FwdWb $end
$var wire 1 I fwd_AluArg2FwdMem $end
$var wire 1 J fwd_AluArg1FwdWb $end
$var wire 1 K fwd_AluArg1FwdMem $end
$var wire 32 L f_PC [31:0] $end
$var wire 4 M exe_AluOp [3:0] $end
$var wire 1 N ctrl_WbFlush $end
$var wire 1 O ctrl_SupressWbFwd $end
$var wire 1 P ctrl_SupressMemFwd $end
$var wire 1 Q ctrl_RegWrite $end
$var wire 1 R ctrl_RegJmp $end
$var wire 1 S ctrl_RegDst $end
$var wire 1 T ctrl_MemWrite $end
$var wire 1 U ctrl_MemToReg $end
$var wire 1 V ctrl_MemRead $end
$var wire 1 W ctrl_MemFlush $end
$var wire 1 X ctrl_LongJmp $end
$var wire 1 Y ctrl_IdFlush $end
$var wire 1 Z ctrl_Halt $end
$var wire 2 [ ctrl_FwdStage [1:0] $end
$var wire 1 \ ctrl_ExeFlush $end
$var wire 1 ] ctrl_Branch $end
$var wire 1 ^ ctrl_AluSrc $end
$var wire 4 _ ctrl_AluOp [3:0] $end
$var wire 1 ` S_ID_EXE_EXE_AluArg2Imm_d $end
$var wire 32 a S_ID_EXE_DATA_Regfile2_d [31:0] $end
$var wire 32 b S_ID_EXE_DATA_Regfile1_d [31:0] $end
$var wire 1 c S_EXE_MEM_DATA_AluZero_d $end
$var wire 32 d S_EXE_MEM_DATA_AluResult_d [31:0] $end
$var reg 32 e S_EXE_MEM_DATA_AluResult [31:0] $end
$var reg 1 f S_EXE_MEM_DATA_AluZero $end
$var reg 5 g S_EXE_MEM_DATA_DstReg [4:0] $end
$var reg 5 h S_EXE_MEM_DATA_DstReg_d [4:0] $end
$var reg 32 i S_EXE_MEM_DATA_JmpAddr [31:0] $end
$var reg 32 j S_EXE_MEM_DATA_JmpAddr_d [31:0] $end
$var reg 32 k S_EXE_MEM_DATA_MemWrtData [31:0] $end
$var reg 32 l S_EXE_MEM_DATA_MemWrtData_d [31:0] $end
$var reg 1 m S_EXE_MEM_MEM_Branch $end
$var reg 1 n S_EXE_MEM_MEM_Branch_d $end
$var reg 1 o S_EXE_MEM_MEM_MemRead $end
$var reg 1 p S_EXE_MEM_MEM_MemRead_d $end
$var reg 1 q S_EXE_MEM_MEM_MemWrite $end
$var reg 1 r S_EXE_MEM_MEM_MemWrite_d $end
$var reg 2 s S_EXE_MEM_WB_FwdStage [1:0] $end
$var reg 2 t S_EXE_MEM_WB_FwdStage_d [1:0] $end
$var reg 1 u S_EXE_MEM_WB_MemToReg $end
$var reg 1 v S_EXE_MEM_WB_MemToReg_d $end
$var reg 1 w S_EXE_MEM_WB_RegWrite $end
$var reg 1 x S_EXE_MEM_WB_RegWrite_d $end
$var reg 5 y S_ID_EXE_DATA_AluArgRegNum1 [4:0] $end
$var reg 5 z S_ID_EXE_DATA_AluArgRegNum1_d [4:0] $end
$var reg 5 { S_ID_EXE_DATA_AluArgRegNum2 [4:0] $end
$var reg 5 | S_ID_EXE_DATA_AluArgRegNum2_d [4:0] $end
$var reg 5 } S_ID_EXE_DATA_DstRd [4:0] $end
$var reg 5 ~ S_ID_EXE_DATA_DstRd_d [4:0] $end
$var reg 5 !" S_ID_EXE_DATA_DstRt [4:0] $end
$var reg 5 "" S_ID_EXE_DATA_DstRt_d [4:0] $end
$var reg 6 #" S_ID_EXE_DATA_Funct [5:0] $end
$var reg 6 $" S_ID_EXE_DATA_Funct_d [5:0] $end
$var reg 32 %" S_ID_EXE_DATA_Imm [31:0] $end
$var reg 32 &" S_ID_EXE_DATA_Imm_d [31:0] $end
$var reg 26 '" S_ID_EXE_DATA_JAddr [25:0] $end
$var reg 26 (" S_ID_EXE_DATA_JAddr_d [25:0] $end
$var reg 32 )" S_ID_EXE_DATA_Pc [31:0] $end
$var reg 32 *" S_ID_EXE_DATA_Pc_d [31:0] $end
$var reg 32 +" S_ID_EXE_DATA_Regfile1 [31:0] $end
$var reg 32 ," S_ID_EXE_DATA_Regfile2 [31:0] $end
$var reg 5 -" S_ID_EXE_DATA_Shamt [4:0] $end
$var reg 5 ." S_ID_EXE_DATA_Shamt_d [4:0] $end
$var reg 1 /" S_ID_EXE_EXE_AluArg2Imm $end
$var reg 4 0" S_ID_EXE_EXE_AluOp [3:0] $end
$var reg 4 1" S_ID_EXE_EXE_AluOp_d [3:0] $end
$var reg 1 2" S_ID_EXE_EXE_AluSrc $end
$var reg 1 3" S_ID_EXE_EXE_AluSrc_d $end
$var reg 1 4" S_ID_EXE_EXE_LongJmp $end
$var reg 1 5" S_ID_EXE_EXE_LongJmp_d $end
$var reg 1 6" S_ID_EXE_EXE_RegDst $end
$var reg 1 7" S_ID_EXE_EXE_RegDst_d $end
$var reg 1 8" S_ID_EXE_EXE_RegJmp $end
$var reg 1 9" S_ID_EXE_EXE_RegJmp_d $end
$var reg 1 :" S_ID_EXE_MEM_Branch $end
$var reg 1 ;" S_ID_EXE_MEM_Branch_d $end
$var reg 1 <" S_ID_EXE_MEM_MemRead $end
$var reg 1 =" S_ID_EXE_MEM_MemRead_d $end
$var reg 1 >" S_ID_EXE_MEM_MemWrite $end
$var reg 1 ?" S_ID_EXE_MEM_MemWrite_d $end
$var reg 2 @" S_ID_EXE_WB_FwdStage [1:0] $end
$var reg 2 A" S_ID_EXE_WB_FwdStage_d [1:0] $end
$var reg 1 B" S_ID_EXE_WB_MemToReg $end
$var reg 1 C" S_ID_EXE_WB_MemToReg_d $end
$var reg 1 D" S_ID_EXE_WB_RegWrite $end
$var reg 1 E" S_ID_EXE_WB_RegWrite_d $end
$var reg 32 F" S_IF_ID_DATA_Instr [31:0] $end
$var reg 32 G" S_IF_ID_DATA_Instr_d [31:0] $end
$var reg 32 H" S_IF_ID_DATA_Pc [31:0] $end
$var reg 32 I" S_IF_ID_DATA_Pc_d [31:0] $end
$var reg 32 J" S_MEM_WB_DATA_AluResult [31:0] $end
$var reg 32 K" S_MEM_WB_DATA_AluResult_d [31:0] $end
$var reg 5 L" S_MEM_WB_DATA_DstReg [4:0] $end
$var reg 5 M" S_MEM_WB_DATA_DstReg_d [4:0] $end
$var reg 32 N" S_MEM_WB_DATA_MemReadData [31:0] $end
$var reg 32 O" S_MEM_WB_DATA_MemReadData_d [31:0] $end
$var reg 2 P" S_MEM_WB_WB_FwdStage [1:0] $end
$var reg 2 Q" S_MEM_WB_WB_FwdStage_d [1:0] $end
$var reg 1 R" S_MEM_WB_WB_MemToReg $end
$var reg 1 S" S_MEM_WB_WB_MemToReg_d $end
$var reg 1 T" S_MEM_WB_WB_RegWrite $end
$var reg 1 U" S_MEM_WB_WB_RegWrite_d $end
$var reg 32 V" exe_AluArg1 [31:0] $end
$var reg 32 W" exe_AluArg2 [31:0] $end
$var reg 32 X" f_NextPC [31:0] $end
$var reg 5 Y" id_RegFileRead1 [4:0] $end
$var reg 5 Z" id_RegFileRead2 [4:0] $end
$var reg 1 [" mem_BranchTaken $end
$var reg 1 \" mem_PcSrc $end
$var reg 32 ]" wb_ValueWriteback [31:0] $end
$scope function InstrFieldOpcode $end
$var reg 6 ^" InstrFieldOpcode [5:0] $end
$var reg 32 _" instr [31:0] $end
$upscope $end
$scope function InstrIFieldImm $end
$var reg 16 `" InstrIFieldImm [15:0] $end
$var reg 32 a" instr [31:0] $end
$upscope $end
$scope function InstrIFieldRs $end
$var reg 5 b" InstrIFieldRs [4:0] $end
$var reg 32 c" instr [31:0] $end
$upscope $end
$scope function InstrIFieldRt $end
$var reg 5 d" InstrIFieldRt [4:0] $end
$var reg 32 e" instr [31:0] $end
$upscope $end
$scope function InstrIsHlt $end
$var reg 1 f" InstrIsHlt $end
$var reg 32 g" instr [31:0] $end
$var reg 6 h" opcode [5:0] $end
$upscope $end
$scope function InstrIsI $end
$var reg 1 i" InstrIsI $end
$var reg 32 j" instr [31:0] $end
$var reg 6 k" opcode [5:0] $end
$upscope $end
$scope function InstrIsJ $end
$var reg 1 l" InstrIsJ $end
$var reg 32 m" instr [31:0] $end
$var reg 6 n" opcode [5:0] $end
$upscope $end
$scope function InstrIsNop $end
$var reg 1 o" InstrIsNop $end
$var reg 32 p" instr [31:0] $end
$var reg 6 q" opcode [5:0] $end
$upscope $end
$scope function InstrIsR $end
$var reg 1 r" InstrIsR $end
$var reg 32 s" instr [31:0] $end
$var reg 6 t" opcode [5:0] $end
$upscope $end
$scope function InstrJFieldAddr $end
$var reg 27 u" InstrJFieldAddr [26:0] $end
$var reg 32 v" instr [31:0] $end
$upscope $end
$scope function InstrRFieldFunct $end
$var reg 6 w" InstrRFieldFunct [5:0] $end
$var reg 32 x" instr [31:0] $end
$upscope $end
$scope function InstrRFieldRd $end
$var reg 5 y" InstrRFieldRd [4:0] $end
$var reg 32 z" instr [31:0] $end
$upscope $end
$scope function InstrRFieldRs $end
$var reg 5 {" InstrRFieldRs [4:0] $end
$var reg 32 |" instr [31:0] $end
$upscope $end
$scope function InstrRFieldRt $end
$var reg 5 }" InstrRFieldRt [4:0] $end
$var reg 32 ~" instr [31:0] $end
$upscope $end
$scope function InstrRFieldShamt $end
$var reg 5 !# InstrRFieldShamt [4:0] $end
$var reg 32 "# instr [31:0] $end
$upscope $end
$scope module U3 $end
$var wire 1 F ctrl_forceNop $end
$var wire 5 ## exe_DstReg [4:0] $end
$var wire 2 $# exe_FwdNfo [1:0] $end
$var wire 1 %# fwd_Active $end
$var wire 1 G fwd_UnitEnable $end
$var wire 32 &# instr [31:0] $end
$var wire 5 '# mem_DstReg [4:0] $end
$var wire 2 (# mem_FwdNfo [1:0] $end
$var wire 1 E pc_Stop $end
$var wire 5 )# wb_DstReg [4:0] $end
$var wire 2 *# wb_FwdNfo [1:0] $end
$var reg 1 +# ctrl_forceNop_d $end
$var reg 1 ,# pc_Stop_d $end
$scope function InstrFieldOpcode $end
$var reg 6 -# InstrFieldOpcode [5:0] $end
$var reg 32 .# instr [31:0] $end
$upscope $end
$scope function InstrIFieldImm $end
$var reg 16 /# InstrIFieldImm [15:0] $end
$var reg 32 0# instr [31:0] $end
$upscope $end
$scope function InstrIFieldRs $end
$var reg 5 1# InstrIFieldRs [4:0] $end
$var reg 32 2# instr [31:0] $end
$upscope $end
$scope function InstrIFieldRt $end
$var reg 5 3# InstrIFieldRt [4:0] $end
$var reg 32 4# instr [31:0] $end
$upscope $end
$scope function InstrIsHlt $end
$var reg 1 5# InstrIsHlt $end
$var reg 32 6# instr [31:0] $end
$var reg 6 7# opcode [5:0] $end
$upscope $end
$scope function InstrIsI $end
$var reg 1 8# InstrIsI $end
$var reg 32 9# instr [31:0] $end
$var reg 6 :# opcode [5:0] $end
$upscope $end
$scope function InstrIsJ $end
$var reg 1 ;# InstrIsJ $end
$var reg 32 <# instr [31:0] $end
$var reg 6 =# opcode [5:0] $end
$upscope $end
$scope function InstrIsNop $end
$var reg 1 ># InstrIsNop $end
$var reg 32 ?# instr [31:0] $end
$var reg 6 @# opcode [5:0] $end
$upscope $end
$scope function InstrIsR $end
$var reg 1 A# InstrIsR $end
$var reg 32 B# instr [31:0] $end
$var reg 6 C# opcode [5:0] $end
$upscope $end
$scope function InstrJFieldAddr $end
$var reg 27 D# InstrJFieldAddr [26:0] $end
$var reg 32 E# instr [31:0] $end
$upscope $end
$scope function InstrRFieldFunct $end
$var reg 6 F# InstrRFieldFunct [5:0] $end
$var reg 32 G# instr [31:0] $end
$upscope $end
$scope function InstrRFieldRd $end
$var reg 5 H# InstrRFieldRd [4:0] $end
$var reg 32 I# instr [31:0] $end
$upscope $end
$scope function InstrRFieldRs $end
$var reg 5 J# InstrRFieldRs [4:0] $end
$var reg 32 K# instr [31:0] $end
$upscope $end
$scope function InstrRFieldRt $end
$var reg 5 L# InstrRFieldRt [4:0] $end
$var reg 32 M# instr [31:0] $end
$upscope $end
$scope function InstrRFieldShamt $end
$var reg 5 N# InstrRFieldShamt [4:0] $end
$var reg 32 O# instr [31:0] $end
$upscope $end
$scope begin MAIN_LOGIC $end
$var reg 5 P# arg1 [4:0] $end
$var reg 1 Q# arg1Blocked $end
$var reg 5 R# arg2 [4:0] $end
$var reg 1 S# arg2Blocked $end
$var reg 1 T# isIInstruction $end
$var reg 1 U# isRInstruction $end
$upscope $end
$upscope $end
$scope module U4 $end
$var wire 1 [" branchTaken $end
$var wire 1 ` e_AluArg2Imm $end
$var wire 4 V# e_AluOp [3:0] $end
$var wire 1 ^ e_AluSrc $end
$var wire 1 X e_LongJmp $end
$var wire 1 S e_RegDst $end
$var wire 1 R e_RegJmp $end
$var wire 1 \ exe_Flush $end
$var wire 1 P fwd_SupressMemFwd $end
$var wire 1 O fwd_SupressWbFwd $end
$var wire 1 Y id_Flush $end
$var wire 1 F injectNop $end
$var wire 32 W# instr [31:0] $end
$var wire 1 ] m_Branch $end
$var wire 1 V m_MemRead $end
$var wire 1 T m_MemWrite $end
$var wire 1 W mem_Flush $end
$var wire 2 X# w_FwdStage [1:0] $end
$var wire 1 U w_MemToReg $end
$var wire 1 Q w_RegWrite $end
$var wire 1 N wb_Flush $end
$var wire 1 Z halt $end
$var reg 1 Y# e_AluArg2Imm_d $end
$var reg 4 Z# e_AluOp_d [3:0] $end
$var reg 1 [# e_AluSrc_d $end
$var reg 1 \# e_LongJmp_d $end
$var reg 1 ]# e_RegDst_d $end
$var reg 1 ^# e_RegJmp_d $end
$var reg 1 _# exe_Flush_d $end
$var reg 1 `# fwd_SupressMemFwd_d $end
$var reg 1 a# fwd_SupressWbFwd_d $end
$var reg 1 Z halt_d $end
$var reg 1 b# id_Flush_d $end
$var reg 1 c# m_Branch_d $end
$var reg 1 d# m_MemRead_d $end
$var reg 1 e# m_MemWrite_d $end
$var reg 1 f# mem_Flush_d $end
$var reg 2 g# w_FwdStage_d [1:0] $end
$var reg 1 h# w_MemToReg_d $end
$var reg 1 i# w_RegWrite_d $end
$var reg 1 j# wb_Flush_d $end
$scope function InstrFieldOpcode $end
$var reg 6 k# InstrFieldOpcode [5:0] $end
$var reg 32 l# instr [31:0] $end
$upscope $end
$scope function InstrIFieldImm $end
$var reg 16 m# InstrIFieldImm [15:0] $end
$var reg 32 n# instr [31:0] $end
$upscope $end
$scope function InstrIFieldRs $end
$var reg 5 o# InstrIFieldRs [4:0] $end
$var reg 32 p# instr [31:0] $end
$upscope $end
$scope function InstrIFieldRt $end
$var reg 5 q# InstrIFieldRt [4:0] $end
$var reg 32 r# instr [31:0] $end
$upscope $end
$scope function InstrIsHlt $end
$var reg 1 s# InstrIsHlt $end
$var reg 32 t# instr [31:0] $end
$var reg 6 u# opcode [5:0] $end
$upscope $end
$scope function InstrIsI $end
$var reg 1 v# InstrIsI $end
$var reg 32 w# instr [31:0] $end
$var reg 6 x# opcode [5:0] $end
$upscope $end
$scope function InstrIsJ $end
$var reg 1 y# InstrIsJ $end
$var reg 32 z# instr [31:0] $end
$var reg 6 {# opcode [5:0] $end
$upscope $end
$scope function InstrIsNop $end
$var reg 1 |# InstrIsNop $end
$var reg 32 }# instr [31:0] $end
$var reg 6 ~# opcode [5:0] $end
$upscope $end
$scope function InstrIsR $end
$var reg 1 !$ InstrIsR $end
$var reg 32 "$ instr [31:0] $end
$var reg 6 #$ opcode [5:0] $end
$upscope $end
$scope function InstrJFieldAddr $end
$var reg 27 $$ InstrJFieldAddr [26:0] $end
$var reg 32 %$ instr [31:0] $end
$upscope $end
$scope function InstrRFieldFunct $end
$var reg 6 &$ InstrRFieldFunct [5:0] $end
$var reg 32 '$ instr [31:0] $end
$upscope $end
$scope function InstrRFieldRd $end
$var reg 5 ($ InstrRFieldRd [4:0] $end
$var reg 32 )$ instr [31:0] $end
$upscope $end
$scope function InstrRFieldRs $end
$var reg 5 *$ InstrRFieldRs [4:0] $end
$var reg 32 +$ instr [31:0] $end
$upscope $end
$scope function InstrRFieldRt $end
$var reg 5 ,$ InstrRFieldRt [4:0] $end
$var reg 32 -$ instr [31:0] $end
$upscope $end
$scope function InstrRFieldShamt $end
$var reg 5 .$ InstrRFieldShamt [4:0] $end
$var reg 32 /$ instr [31:0] $end
$upscope $end
$scope begin MAIN_LOGIC $end
$upscope $end
$upscope $end
$scope module U5 $end
$var wire 1 G enabled $end
$var wire 5 0$ exe_AluArg1 [4:0] $end
$var wire 1 K exe_AluArg1FwdMem $end
$var wire 1 J exe_AluArg1FwdWb $end
$var wire 5 1$ exe_AluArg2 [4:0] $end
$var wire 1 I exe_AluArg2FwdMem $end
$var wire 1 H exe_AluArg2FwdWb $end
$var wire 1 /" exe_AluArg2Imm $end
$var wire 5 2$ mem_DstReg [4:0] $end
$var wire 2 3$ mem_FwdStage [1:0] $end
$var wire 1 P supressMem $end
$var wire 1 O supressWb $end
$var wire 5 4$ wb_DstReg [4:0] $end
$var wire 2 5$ wb_FwdStage [1:0] $end
$var reg 1 6$ exe_AluArg1FwdMem_d $end
$var reg 1 7$ exe_AluArg1FwdWb_d $end
$var reg 1 8$ exe_AluArg2FwdMem_d $end
$var reg 1 9$ exe_AluArg2FwdWb_d $end
$scope begin MAIN $end
$upscope $end
$upscope $end
$scope module U6 $end
$var wire 1 + clk $end
$var wire 32 :$ next [31:0] $end
$var wire 1 E stop $end
$var wire 32 ;$ curr [31:0] $end
$var reg 32 <$ curr_d [31:0] $end
$upscope $end
$scope module U7 $end
$var wire 1 + clk $end
$var wire 5 =$ reg1ReadAddr [4:0] $end
$var wire 32 >$ reg1ReadData [31:0] $end
$var wire 5 ?$ reg2ReadAddr [4:0] $end
$var wire 32 @$ reg2ReadData [31:0] $end
$var wire 1 T" regWrite $end
$var wire 5 A$ regWriteAddr [4:0] $end
$var wire 32 B$ regWriteData [31:0] $end
$var reg 32 C$ reg1ReadData_d [31:0] $end
$var reg 32 D$ reg2ReadData_d [31:0] $end
$scope begin MAIN $end
$upscope $end
$scope begin REGFILE_INIT $end
$var reg 32 E$ tmp [31:0] $end
$var integer 32 F$ bit [31:0] $end
$var integer 32 G$ char [31:0] $end
$var integer 32 H$ f_in [31:0] $end
$var integer 32 I$ word [31:0] $end
$upscope $end
$scope task dump_mem $end
$var integer 32 J$ f_out [31:0] $end
$var integer 32 K$ word [31:0] $end
$upscope $end
$upscope $end
$scope module U8 $end
$var wire 4 L$ aluop [3:0] $end
$var wire 4 M$ ctrl [3:0] $end
$var wire 6 N$ funct [5:0] $end
$var reg 4 O$ aluop_d [3:0] $end
$upscope $end
$scope module U9 $end
$var wire 4 P$ alu_op [3:0] $end
$var wire 32 Q$ arg1 [31:0] $end
$var wire 32 R$ arg2 [31:0] $end
$var wire 32 S$ result [31:0] $end
$var wire 1 c zero $end
$var reg 32 T$ result_d [31:0] $end
$scope begin MAIN $end
$var reg 32 U$ sa [31:0] $end
$var reg 32 V$ sb [31:0] $end
$var reg 32 W$ ua [31:0] $end
$var reg 32 X$ ub [31:0] $end
$upscope $end
$upscope $end
$scope begin SEQUENTIAL_ASSIGN $end
$upscope $end
$scope begin STAGE_D_LOGIC $end
$var reg 16 Y$ tmpImm [15:0] $end
$upscope $end
$scope begin STAGE_E_LOGIC $end
$var reg 32 Z$ tmpJmpAddr [31:0] $end
$var reg 32 [$ tmpPC [31:0] $end
$upscope $end
$scope begin STAGE_F_LOGIC $end
$upscope $end
$scope begin STAGE_M_LOGIC $end
$upscope $end
$scope begin STAGE_W_LOGIC $end
$upscope $end
$upscope $end
$scope begin TEST_MAIN $end
$scope begin CLK_BLOCK $end
$upscope $end
$upscope $end
$upscope $end
$enddefinitions $end
#0
$dumpvars
b0 [$
b0 Z$
b0 Y$
b0 X$
b0 W$
bx V$
bx U$
b0 T$
b0 S$
b0 R$
b0 Q$
b0 P$
b0 O$
b0 N$
b1010 M$
b0 L$
bx K$
bx J$
b100000 I$
b10000000000000000000000000000011 H$
b1010 G$
b100000 F$
b111000 E$
bx D$
bx C$
b0 B$
b0 A$
bx @$
b0 ?$
bx >$
b0 =$
b0 <$
b0 ;$
b100 :$
09$
08$
07$
06$
b0 5$
b0 4$
b0 3$
b0 2$
b0 1$
b0 0$
bx /$
bx .$
bx -$
bx ,$
bx +$
bx *$
bx )$
bx ($
bx '$
bx &$
bx %$
bx $$
bx #$
bx "$
x!$
b111111 ~#
b11111100000000000000000000000000 }#
1|#
bx {#
bx z#
xy#
bx x#
bx w#
xv#
b111111 u#
b11111100000000000000000000000000 t#
0s#
bx r#
bx q#
bx p#
bx o#
bx n#
bx m#
b11111100000000000000000000000000 l#
b111111 k#
0j#
0i#
0h#
b0 g#
0f#
0e#
0d#
0c#
0b#
0a#
0`#
0_#
0^#
0]#
0\#
0[#
b1010 Z#
1Y#
b0 X#
b11111100000000000000000000000000 W#
b1010 V#
0U#
0T#
0S#
b0 R#
0Q#
b0 P#
bx O#
bx N#
b11111100000000000000000000000000 M#
b0 L#
b11111100000000000000000000000000 K#
b0 J#
bx I#
bx H#
bx G#
bx F#
bx E#
bx D#
b111111 C#
b11111100000000000000000000000000 B#
0A#
b111111 @#
b11111100000000000000000000000000 ?#
1>#
b111111 =#
b11111100000000000000000000000000 <#
0;#
b111111 :#
b11111100000000000000000000000000 9#
08#
bx 7#
bx 6#
x5#
bx 4#
bx 3#
bx 2#
bx 1#
bx 0#
bx /#
b11111100000000000000000000000000 .#
b111111 -#
0,#
0+#
b0 *#
b0 )#
b0 (#
b0 '#
b11111100000000000000000000000000 &#
1%#
b0 $#
b0 ##
b11111100000000000000000000000000 "#
b0 !#
b11111100000000000000000000000000 ~"
b0 }"
b11111100000000000000000000000000 |"
b0 {"
b11111100000000000000000000000000 z"
b0 y"
b11111100000000000000000000000000 x"
b0 w"
b11111100000000000000000000000000 v"
b0 u"
bx t"
bx s"
xr"
bx q"
bx p"
xo"
bx n"
bx m"
xl"
bx k"
bx j"
xi"
bx h"
bx g"
xf"
bx e"
bx d"
bx c"
bx b"
b11111100000000000000000000000000 a"
b0 `"
bx _"
bx ^"
b0 ]"
0\"
0["
b0 Z"
b0 Y"
b100 X"
b0 W"
b0 V"
0U"
0T"
0S"
0R"
b0 Q"
b0 P"
bx O"
b0 N"
b0 M"
b0 L"
b0 K"
b0 J"
b100 I"
b0 H"
b100000100001 G"
b11111100000000000000000000000000 F"
0E"
0D"
0C"
0B"
b0 A"
b0 @"
0?"
0>"
0="
0<"
0;"
0:"
09"
08"
07"
06"
05"
04"
03"
02"
b1010 1"
b1010 0"
0/"
b0 ."
b0 -"
b0 ,"
b0 +"
b0 *"
b0 )"
b0 ("
b0 '"
b0 &"
b0 %"
b0 $"
b0 #"
b0 ""
b0 !"
b0 ~
b0 }
b0 |
b0 {
b0 z
b0 y
0x
0w
0v
0u
b0 t
b0 s
0r
0q
0p
0o
0n
0m
b0 l
b0 k
b0 j
b0 i
b0 h
b0 g
0f
b0 e
b0 d
1c
bx b
bx a
1`
b1010 _
0^
0]
0\
b0 [
0Z
0Y
0X
0W
0V
0U
0T
0S
0R
0Q
0P
0O
0N
b0 M
b0 L
0K
0J
0I
0H
1G
0F
0E
b100000100001 D
b0 C
b0 B
bx A
b0 @
bx ?
bx >
b100000 =
b10000000000000000000000000000011 <
b1010 ;
b100000 :
b0 9
bx 8
b0 7
b0 6
bx 5
b10001 4
b10000000000000000000000000000011 3
b1010 2
b100000 1
b11111100000000000000000000000000 0
b0 /
b0 .
b100000100001 -
b0 ,
0+
b100000100001 *
bx )
b0 (
0'
b0 &
0%
0$
b0 #
0"
0!
$end
#100
b0 O"
b0 )
b0 5
b0 A
b0 8
b0 a
b0 @$
b0 D$
b0 b
b0 >$
b0 C$
#200
1"
1'
1+
#300
17"
b0 1"
b1 A"
1E"
0>#
b0 @#
b100000100001 ?#
b0 =#
b100000100001 <#
b100000100001 M#
b100000100001 K#
b0 :#
b100000100001 9#
1U#
1A#
b0 C#
b0 -#
b100000100001 .#
b100000100001 B#
b1 [
b1 X#
b1 g#
1Q
1i#
0`
0Y#
b0 _
b0 V#
b0 Z#
1S
1]#
b100001 &$
b100000100001 '$
1!$
b0 #$
b100000100001 "$
0v#
b0 x#
b100000100001 w#
0y#
b0 {#
b100000100001 z#
0|#
b0 ~#
b100000100001 }#
b0 u#
b0 k#
b100000100001 l#
b100000100001 t#
b1 ~
b1 y"
b100000100001 z"
b100001 $"
b100001 w"
b100000100001 x"
b100000100001 "#
b100000100001 ("
b100000100001 u"
b100000100001 v"
b100000100001 &"
b100000100001 Y$
b100000100001 `"
b100000100001 a"
b100 *"
b100000100001 ~"
b100000100001 |"
b1000 I"
b1000 X"
b1000 :$
1f
1/"
b100000100001 F"
b100000100001 &#
b100000100001 W#
b100 H"
b100 #
b100 .
b100 C
b100 L
b100 ;$
b100 <$
#400
b1 ,
0"
0'
0+
#500
b10000111000000000000000001000 G"
b10000111000000000000000001000 *
b10000111000000000000000001000 -
b10000111000000000000000001000 D
b1 /
#600
1"
1'
1+
#700
07"
b1000 1"
1;"
b0 A"
0E"
b1 t
1x
b1 h
b1 ##
b10000010001000 j
b100 [$
b10000010000100 Z$
b100 @#
b10000111000000000000000001000 ?#
b100 =#
b10000111000000000000000001000 <#
b10000111000000000000000001000 M#
b111 P#
b111 J#
b10000111000000000000000001000 K#
1T#
18#
b100 :#
b10000111000000000000000001000 9#
0U#
0A#
b100 C#
b100 -#
b10000111000000000000000001000 .#
b10000111000000000000000001000 B#
b0 [
b0 X#
b0 g#
0Q
0i#
1]
1c#
1`
1Y#
b1000 _
b1000 V#
b1000 Z#
0S
0]#
1v#
b100 x#
b10000111000000000000000001000 w#
b100 {#
b10000111000000000000000001000 z#
b100 ~#
b10000111000000000000000001000 }#
b100 u#
b100 k#
b10000111000000000000000001000 l#
b10000111000000000000000001000 t#
b0 ~
b0 y"
b10000111000000000000000001000 z"
b111 z
b1000 $"
b1000 w"
b10000111000000000000000001000 x"
b10000111000000000000000001000 "#
b111000000000000000001000 ("
b111000000000000000001000 u"
b10000111000000000000000001000 v"
b1000 &"
b1000 Y$
b1000 `"
b10000111000000000000000001000 a"
b1000 *"
b10000111000000000000000001000 ~"
b111 Y"
b111 =$
b111 {"
b10000111000000000000000001000 |"
b1100 I"
b1100 X"
b1100 :$
b1 }
b100001 #"
b100001 N$
b100000100001 '"
b100000100001 %"
b100 )"
0/"
16"
b0 0"
b0 M$
b1 @"
b1 $#
1D"
b10000111000000000000000001000 F"
b10000111000000000000000001000 &#
b10000111000000000000000001000 W#
b1000 H"
b1000 #
b1000 .
b1000 C
b1000 L
b1000 ;$
b1000 <$
#800
b10 ,
0"
0'
0+
#900
b10001100011000100000000000000000 G"
b10001100011000100000000000000000 *
b10001100011000100000000000000000 -
b10001100011000100000000000000000 D
b10 /
b1001 b
b1001 >$
b1001 C$
#1000
1"
1'
1+
